^D:\C++ CODE\SLNJOHNRILEYASSIGNMENT2\JOHNRILEYASSIGNMENT2\DEBUG\MAIN.OBJ
D:\C++ CODE\SLNJOHNRILEYASSIGNMENT2\DEBUG\JOHNRILEYASSIGNMENT2.EXE
D:\C++ CODE\SLNJOHNRILEYASSIGNMENT2\DEBUG\JOHNRILEYASSIGNMENT2.ILK
D:\C++ CODE\SLNJOHNRILEYASSIGNMENT2\DEBUG\JOHNRILEYASSIGNMENT2.PDB
